{
    "required": [
      "bodyCode"
    ],
    "type": "object",
    "properties": {
      "bodyCodeID": {
        "type": "string",
        "example": "a1"
      },
      "bodyCode": {
        "type": "string",
        "example": "57425"
      }
    }
  }