{
    "required": [
      "claimType",
      "claimStatus",
      "claimSourceType"
    ],
    "type": "object",
    "properties": {
      "claimType": {
        "type": "string",
        "example": "a1"
      },
      "claimStatus": {
        "type": "string",
        "example": "a1"
      },
      "claimSourceType": {
        "type": "string",
        "example": "a1"
      }
    }
  }