{
    "required": [
      "premisesInsured",
      "email"
    ],
    "type": "object",
    "properties": {
      "premisesInsured": {
        "type": "string",
        "example": "Yes"
      },
      "ownerName": {
        "type": "string",
        "example": "John"
      },
      "phone": {
        "type": "string",
        "pattern": "^\\d{3}-\\d{3}-\\d{4}$",
        "example": "111-111-1111"
      },
      "email": {
        "type": "string",
        "format": "email",
        "example": "john@xyz.com"
      },
      "productInsured": {
        "type": "string",
        "example": ""
      },
      "whereBeSeen": {
        "type": "string",
        "example": ""
      },
      "typeOfPremises": {
        "type": "string",
        "example": ""
      },
      "address": {
        "$ref": "#/components/schemas/address"
      },
      "manufactuter": {
        "$ref": "#/components/schemas/manufactuter"
      },
      "vendor": {
        "$ref": "#/components/schemas/vendor"
      }
    }
  }