{
    "required": [
      "maritalStatus"
    ],
    "type": "object",
    "properties": {
      "maritalStatusID": {
        "type": "string",
        "example": "a1"
      },
      "maritalStatus": {
        "type": "string",
        "example": "Married"
      }
    }
  }